[
	{
		"custom_emoji": false,
		"emoji": "💦",
		"name": "sweat_drops",
		"spammable": false,
		"response_builder": {
			"type": "standard",
			"standard_steps": [
				{
					"type": "image",
					"location": "local",
					"path": "jizz.jpg"
				}
			]
		}
	},
	{
		"custom_emoji": false,
		"emoji": "🍆",
		"name": "eggplant",
		"spammable": false,
		"response_builder": {
			"type": "standard",
			"standard_steps": [
				{
					"type": "text",
					"contents": "( ͡° ͜ʖ ͡°)"
				}
			]
		}
	},
	{
		"custom_emoji": false,
		"emoji": "🇳🇱",
		"name": "flag_nl",
		"spammable": false,
		"response_builder": {
			"type": "standard",
			"standard_steps": [
				{
					"type": "text",
					"contents": "hoi dat is best goed"
				}
			]
		}
	},
	{
		"custom_emoji": false,
		"emoji": "🇫🇷",
		"name": "flag_fr",
		"spammable": false,
		"response_builder": {
			"type": "standard",
			"standard_steps": [
				{
					"type": "text",
					"contents": "hey c'est pas trop mal"
				}
			]
		}
	},
	{
		"custom_emoji": false,
		"emoji": "🇭🇷",
		"name": "flag_cr",
		"spammable": false,
		"response_builder": {
			"type": "standard",
			"standard_steps": [
				{
					"type": "text",
					"contents": "Hej, to je prilično dobro"
				}
			]
		}
	}
]
